ISO-10303-21;
HEADER;
/* Generated by software containing ST-Developer
 * from STEP Tools, Inc. (www.steptools.com) 
 */

FILE_DESCRIPTION(
/* description */ (''),
/* implementation_level */ '2;1');

FILE_NAME(
/* name */ 
'/var/folders/s_/jtl251xs7kgfghn0d7c0c22w0000gn/T/com.autodesk.mas.fus
ion360/Neutron/c324e37e-fab1-4da6-a810-8e1c2b66550a.stp',
/* time_stamp */ '2018-08-18T14:21:57-07:00',
/* author */ ('cp253'),
/* organization */ (''),
/* preprocessor_version */ 'ST-DEVELOPER v17',
/* originating_system */ 'Autodesk Translation Framework v7.1.0.215',
/* authorisation */ '');

FILE_SCHEMA (('AUTOMOTIVE_DESIGN { 1 0 10303 214 3 1 1 }'));
ENDSEC;

DATA;
#10=MECHANICAL_DESIGN_GEOMETRIC_PRESENTATION_REPRESENTATION('',(#460,#461,
#462,#463,#464,#465,#466,#467,#468,#469,#470,#471,#472,#473,#474,#475,#476,
#477,#478,#479),#873);
#11=SHAPE_REPRESENTATION_RELATIONSHIP('SRR','None',#880,#12);
#12=ADVANCED_BREP_SHAPE_REPRESENTATION('',(#13),#872);
#13=MANIFOLD_SOLID_BREP('Body1',#499);
#14=FACE_BOUND('',#59,.T.);
#15=FACE_BOUND('',#60,.T.);
#16=FACE_BOUND('',#61,.T.);
#17=FACE_BOUND('',#62,.T.);
#18=FACE_BOUND('',#63,.T.);
#19=FACE_BOUND('',#64,.T.);
#20=FACE_BOUND('',#65,.T.);
#21=FACE_BOUND('',#66,.T.);
#22=FACE_BOUND('',#67,.T.);
#23=FACE_BOUND('',#76,.T.);
#24=FACE_BOUND('',#77,.T.);
#25=FACE_BOUND('',#78,.T.);
#26=FACE_BOUND('',#79,.T.);
#27=FACE_BOUND('',#80,.T.);
#28=FACE_BOUND('',#81,.T.);
#29=FACE_BOUND('',#82,.T.);
#30=FACE_BOUND('',#83,.T.);
#31=FACE_BOUND('',#84,.T.);
#32=PLANE('',#516);
#33=PLANE('',#538);
#34=PLANE('',#539);
#35=PLANE('',#542);
#36=PLANE('',#545);
#37=PLANE('',#548);
#38=FACE_OUTER_BOUND('',#57,.T.);
#39=FACE_OUTER_BOUND('',#58,.T.);
#40=FACE_OUTER_BOUND('',#68,.T.);
#41=FACE_OUTER_BOUND('',#69,.T.);
#42=FACE_OUTER_BOUND('',#70,.T.);
#43=FACE_OUTER_BOUND('',#71,.T.);
#44=FACE_OUTER_BOUND('',#72,.T.);
#45=FACE_OUTER_BOUND('',#73,.T.);
#46=FACE_OUTER_BOUND('',#74,.T.);
#47=FACE_OUTER_BOUND('',#75,.T.);
#48=FACE_OUTER_BOUND('',#85,.T.);
#49=FACE_OUTER_BOUND('',#86,.T.);
#50=FACE_OUTER_BOUND('',#87,.T.);
#51=FACE_OUTER_BOUND('',#88,.T.);
#52=FACE_OUTER_BOUND('',#89,.T.);
#53=FACE_OUTER_BOUND('',#90,.T.);
#54=FACE_OUTER_BOUND('',#91,.T.);
#55=FACE_OUTER_BOUND('',#92,.T.);
#56=FACE_OUTER_BOUND('',#93,.T.);
#57=EDGE_LOOP('',(#309,#310,#311,#312));
#58=EDGE_LOOP('',(#313,#314,#315,#316,#317,#318,#319,#320));
#59=EDGE_LOOP('',(#321,#322));
#60=EDGE_LOOP('',(#323,#324));
#61=EDGE_LOOP('',(#325,#326));
#62=EDGE_LOOP('',(#327,#328));
#63=EDGE_LOOP('',(#329,#330));
#64=EDGE_LOOP('',(#331,#332));
#65=EDGE_LOOP('',(#333,#334));
#66=EDGE_LOOP('',(#335,#336));
#67=EDGE_LOOP('',(#337,#338));
#68=EDGE_LOOP('',(#339,#340,#341,#342));
#69=EDGE_LOOP('',(#343,#344,#345,#346));
#70=EDGE_LOOP('',(#347,#348,#349,#350));
#71=EDGE_LOOP('',(#351,#352,#353,#354));
#72=EDGE_LOOP('',(#355,#356,#357,#358));
#73=EDGE_LOOP('',(#359,#360,#361,#362));
#74=EDGE_LOOP('',(#363,#364,#365,#366));
#75=EDGE_LOOP('',(#367,#368,#369,#370,#371,#372,#373,#374));
#76=EDGE_LOOP('',(#375,#376));
#77=EDGE_LOOP('',(#377,#378));
#78=EDGE_LOOP('',(#379,#380));
#79=EDGE_LOOP('',(#381,#382));
#80=EDGE_LOOP('',(#383,#384));
#81=EDGE_LOOP('',(#385,#386));
#82=EDGE_LOOP('',(#387,#388));
#83=EDGE_LOOP('',(#389,#390));
#84=EDGE_LOOP('',(#391,#392));
#85=EDGE_LOOP('',(#393,#394,#395,#396,#397,#398));
#86=EDGE_LOOP('',(#399,#400,#401,#402,#403,#404));
#87=EDGE_LOOP('',(#405,#406,#407,#408,#409,#410));
#88=EDGE_LOOP('',(#411,#412,#413,#414,#415,#416));
#89=EDGE_LOOP('',(#417,#418,#419,#420,#421,#422));
#90=EDGE_LOOP('',(#423,#424,#425,#426,#427,#428));
#91=EDGE_LOOP('',(#429,#430,#431,#432,#433,#434));
#92=EDGE_LOOP('',(#435,#436,#437,#438,#439,#440));
#93=EDGE_LOOP('',(#441,#442,#443,#444,#445,#446));
#94=LINE('',#735,#119);
#95=LINE('',#738,#120);
#96=LINE('',#741,#121);
#97=LINE('',#745,#122);
#98=LINE('',#749,#123);
#99=LINE('',#752,#124);
#100=LINE('',#791,#125);
#101=LINE('',#792,#126);
#102=LINE('',#795,#127);
#103=LINE('',#796,#128);
#104=LINE('',#800,#129);
#105=LINE('',#803,#130);
#106=LINE('',#804,#131);
#107=LINE('',#808,#132);
#108=LINE('',#811,#133);
#109=LINE('',#812,#134);
#110=LINE('',#853,#135);
#111=LINE('',#855,#136);
#112=LINE('',#857,#137);
#113=LINE('',#859,#138);
#114=LINE('',#861,#139);
#115=LINE('',#863,#140);
#116=LINE('',#865,#141);
#117=LINE('',#867,#142);
#118=LINE('',#869,#143);
#119=VECTOR('',#582,1000.);
#120=VECTOR('',#585,1000.);
#121=VECTOR('',#588,1000.);
#122=VECTOR('',#591,1000.);
#123=VECTOR('',#594,1000.);
#124=VECTOR('',#597,1000.);
#125=VECTOR('',#636,1000.);
#126=VECTOR('',#637,1000.);
#127=VECTOR('',#640,1000.);
#128=VECTOR('',#641,1000.);
#129=VECTOR('',#646,1000.);
#130=VECTOR('',#649,1000.);
#131=VECTOR('',#650,1000.);
#132=VECTOR('',#655,1000.);
#133=VECTOR('',#658,1000.);
#134=VECTOR('',#659,1000.);
#135=VECTOR('',#704,3.2639);
#136=VECTOR('',#707,3.2639);
#137=VECTOR('',#710,1.6);
#138=VECTOR('',#713,1.6);
#139=VECTOR('',#716,1.6);
#140=VECTOR('',#719,1.6);
#141=VECTOR('',#722,1.6);
#142=VECTOR('',#725,1.6);
#143=VECTOR('',#728,3.5);
#144=CIRCLE('',#514,2.54);
#145=CIRCLE('',#515,2.54);
#146=CIRCLE('',#517,2.54);
#147=CIRCLE('',#518,2.54);
#148=CIRCLE('',#519,2.54);
#149=CIRCLE('',#520,3.5);
#150=CIRCLE('',#521,3.5);
#151=CIRCLE('',#522,1.6);
#152=CIRCLE('',#523,1.6);
#153=CIRCLE('',#524,1.6);
#154=CIRCLE('',#525,1.6);
#155=CIRCLE('',#526,1.6);
#156=CIRCLE('',#527,1.6);
#157=CIRCLE('',#528,1.6);
#158=CIRCLE('',#529,1.6);
#159=CIRCLE('',#530,1.6);
#160=CIRCLE('',#531,1.6);
#161=CIRCLE('',#532,1.6);
#162=CIRCLE('',#533,1.6);
#163=CIRCLE('',#534,3.2639);
#164=CIRCLE('',#535,3.2639);
#165=CIRCLE('',#536,3.2639);
#166=CIRCLE('',#537,3.2639);
#167=CIRCLE('',#541,2.54);
#168=CIRCLE('',#544,2.54);
#169=CIRCLE('',#547,2.54);
#170=CIRCLE('',#549,3.5);
#171=CIRCLE('',#550,3.5);
#172=CIRCLE('',#551,1.6);
#173=CIRCLE('',#552,1.6);
#174=CIRCLE('',#553,1.6);
#175=CIRCLE('',#554,1.6);
#176=CIRCLE('',#555,1.6);
#177=CIRCLE('',#556,1.6);
#178=CIRCLE('',#557,1.6);
#179=CIRCLE('',#558,1.6);
#180=CIRCLE('',#559,1.6);
#181=CIRCLE('',#560,1.6);
#182=CIRCLE('',#561,1.6);
#183=CIRCLE('',#562,1.6);
#184=CIRCLE('',#563,3.2639);
#185=CIRCLE('',#564,3.2639);
#186=CIRCLE('',#565,3.2639);
#187=CIRCLE('',#566,3.2639);
#188=VERTEX_POINT('',#731);
#189=VERTEX_POINT('',#732);
#190=VERTEX_POINT('',#734);
#191=VERTEX_POINT('',#736);
#192=VERTEX_POINT('',#740);
#193=VERTEX_POINT('',#742);
#194=VERTEX_POINT('',#744);
#195=VERTEX_POINT('',#746);
#196=VERTEX_POINT('',#748);
#197=VERTEX_POINT('',#750);
#198=VERTEX_POINT('',#753);
#199=VERTEX_POINT('',#754);
#200=VERTEX_POINT('',#757);
#201=VERTEX_POINT('',#758);
#202=VERTEX_POINT('',#761);
#203=VERTEX_POINT('',#762);
#204=VERTEX_POINT('',#765);
#205=VERTEX_POINT('',#766);
#206=VERTEX_POINT('',#769);
#207=VERTEX_POINT('',#770);
#208=VERTEX_POINT('',#773);
#209=VERTEX_POINT('',#774);
#210=VERTEX_POINT('',#777);
#211=VERTEX_POINT('',#778);
#212=VERTEX_POINT('',#781);
#213=VERTEX_POINT('',#782);
#214=VERTEX_POINT('',#785);
#215=VERTEX_POINT('',#786);
#216=VERTEX_POINT('',#790);
#217=VERTEX_POINT('',#794);
#218=VERTEX_POINT('',#798);
#219=VERTEX_POINT('',#802);
#220=VERTEX_POINT('',#806);
#221=VERTEX_POINT('',#810);
#222=VERTEX_POINT('',#816);
#223=VERTEX_POINT('',#817);
#224=VERTEX_POINT('',#820);
#225=VERTEX_POINT('',#821);
#226=VERTEX_POINT('',#824);
#227=VERTEX_POINT('',#825);
#228=VERTEX_POINT('',#828);
#229=VERTEX_POINT('',#829);
#230=VERTEX_POINT('',#832);
#231=VERTEX_POINT('',#833);
#232=VERTEX_POINT('',#836);
#233=VERTEX_POINT('',#837);
#234=VERTEX_POINT('',#840);
#235=VERTEX_POINT('',#841);
#236=VERTEX_POINT('',#844);
#237=VERTEX_POINT('',#845);
#238=VERTEX_POINT('',#848);
#239=VERTEX_POINT('',#849);
#240=EDGE_CURVE('',#188,#189,#144,.T.);
#241=EDGE_CURVE('',#190,#189,#94,.T.);
#242=EDGE_CURVE('',#191,#190,#145,.T.);
#243=EDGE_CURVE('',#191,#188,#95,.T.);
#244=EDGE_CURVE('',#190,#192,#96,.T.);
#245=EDGE_CURVE('',#192,#193,#146,.T.);
#246=EDGE_CURVE('',#193,#194,#97,.T.);
#247=EDGE_CURVE('',#194,#195,#147,.T.);
#248=EDGE_CURVE('',#196,#195,#98,.T.);
#249=EDGE_CURVE('',#196,#197,#148,.T.);
#250=EDGE_CURVE('',#191,#197,#99,.T.);
#251=EDGE_CURVE('',#198,#199,#149,.T.);
#252=EDGE_CURVE('',#199,#198,#150,.T.);
#253=EDGE_CURVE('',#200,#201,#151,.T.);
#254=EDGE_CURVE('',#201,#200,#152,.T.);
#255=EDGE_CURVE('',#202,#203,#153,.T.);
#256=EDGE_CURVE('',#203,#202,#154,.T.);
#257=EDGE_CURVE('',#204,#205,#155,.T.);
#258=EDGE_CURVE('',#205,#204,#156,.T.);
#259=EDGE_CURVE('',#206,#207,#157,.T.);
#260=EDGE_CURVE('',#207,#206,#158,.T.);
#261=EDGE_CURVE('',#208,#209,#159,.T.);
#262=EDGE_CURVE('',#209,#208,#160,.T.);
#263=EDGE_CURVE('',#210,#211,#161,.T.);
#264=EDGE_CURVE('',#211,#210,#162,.T.);
#265=EDGE_CURVE('',#212,#213,#163,.T.);
#266=EDGE_CURVE('',#213,#212,#164,.T.);
#267=EDGE_CURVE('',#214,#215,#165,.T.);
#268=EDGE_CURVE('',#215,#214,#166,.T.);
#269=EDGE_CURVE('',#188,#216,#100,.T.);
#270=EDGE_CURVE('',#197,#216,#101,.T.);
#271=EDGE_CURVE('',#189,#217,#102,.T.);
#272=EDGE_CURVE('',#192,#217,#103,.T.);
#273=EDGE_CURVE('',#217,#218,#167,.T.);
#274=EDGE_CURVE('',#193,#218,#104,.T.);
#275=EDGE_CURVE('',#218,#219,#105,.T.);
#276=EDGE_CURVE('',#194,#219,#106,.T.);
#277=EDGE_CURVE('',#219,#220,#168,.T.);
#278=EDGE_CURVE('',#195,#220,#107,.T.);
#279=EDGE_CURVE('',#221,#220,#108,.T.);
#280=EDGE_CURVE('',#196,#221,#109,.T.);
#281=EDGE_CURVE('',#221,#216,#169,.T.);
#282=EDGE_CURVE('',#222,#223,#170,.T.);
#283=EDGE_CURVE('',#223,#222,#171,.T.);
#284=EDGE_CURVE('',#224,#225,#172,.F.);
#285=EDGE_CURVE('',#225,#224,#173,.F.);
#286=EDGE_CURVE('',#226,#227,#174,.F.);
#287=EDGE_CURVE('',#227,#226,#175,.F.);
#288=EDGE_CURVE('',#228,#229,#176,.F.);
#289=EDGE_CURVE('',#229,#228,#177,.F.);
#290=EDGE_CURVE('',#230,#231,#178,.F.);
#291=EDGE_CURVE('',#231,#230,#179,.F.);
#292=EDGE_CURVE('',#232,#233,#180,.F.);
#293=EDGE_CURVE('',#233,#232,#181,.F.);
#294=EDGE_CURVE('',#234,#235,#182,.F.);
#295=EDGE_CURVE('',#235,#234,#183,.F.);
#296=EDGE_CURVE('',#236,#237,#184,.F.);
#297=EDGE_CURVE('',#237,#236,#185,.F.);
#298=EDGE_CURVE('',#238,#239,#186,.F.);
#299=EDGE_CURVE('',#239,#238,#187,.F.);
#300=EDGE_CURVE('',#215,#239,#110,.T.);
#301=EDGE_CURVE('',#213,#237,#111,.T.);
#302=EDGE_CURVE('',#205,#229,#112,.T.);
#303=EDGE_CURVE('',#207,#231,#113,.T.);
#304=EDGE_CURVE('',#209,#233,#114,.T.);
#305=EDGE_CURVE('',#211,#235,#115,.T.);
#306=EDGE_CURVE('',#203,#227,#116,.T.);
#307=EDGE_CURVE('',#201,#225,#117,.T.);
#308=EDGE_CURVE('',#199,#223,#118,.T.);
#309=ORIENTED_EDGE('',*,*,#240,.T.);
#310=ORIENTED_EDGE('',*,*,#241,.F.);
#311=ORIENTED_EDGE('',*,*,#242,.F.);
#312=ORIENTED_EDGE('',*,*,#243,.T.);
#313=ORIENTED_EDGE('',*,*,#244,.T.);
#314=ORIENTED_EDGE('',*,*,#245,.T.);
#315=ORIENTED_EDGE('',*,*,#246,.T.);
#316=ORIENTED_EDGE('',*,*,#247,.T.);
#317=ORIENTED_EDGE('',*,*,#248,.F.);
#318=ORIENTED_EDGE('',*,*,#249,.T.);
#319=ORIENTED_EDGE('',*,*,#250,.F.);
#320=ORIENTED_EDGE('',*,*,#242,.T.);
#321=ORIENTED_EDGE('',*,*,#251,.F.);
#322=ORIENTED_EDGE('',*,*,#252,.F.);
#323=ORIENTED_EDGE('',*,*,#253,.F.);
#324=ORIENTED_EDGE('',*,*,#254,.F.);
#325=ORIENTED_EDGE('',*,*,#255,.F.);
#326=ORIENTED_EDGE('',*,*,#256,.F.);
#327=ORIENTED_EDGE('',*,*,#257,.F.);
#328=ORIENTED_EDGE('',*,*,#258,.F.);
#329=ORIENTED_EDGE('',*,*,#259,.F.);
#330=ORIENTED_EDGE('',*,*,#260,.F.);
#331=ORIENTED_EDGE('',*,*,#261,.F.);
#332=ORIENTED_EDGE('',*,*,#262,.F.);
#333=ORIENTED_EDGE('',*,*,#263,.F.);
#334=ORIENTED_EDGE('',*,*,#264,.F.);
#335=ORIENTED_EDGE('',*,*,#265,.F.);
#336=ORIENTED_EDGE('',*,*,#266,.F.);
#337=ORIENTED_EDGE('',*,*,#267,.F.);
#338=ORIENTED_EDGE('',*,*,#268,.F.);
#339=ORIENTED_EDGE('',*,*,#269,.F.);
#340=ORIENTED_EDGE('',*,*,#243,.F.);
#341=ORIENTED_EDGE('',*,*,#250,.T.);
#342=ORIENTED_EDGE('',*,*,#270,.T.);
#343=ORIENTED_EDGE('',*,*,#271,.T.);
#344=ORIENTED_EDGE('',*,*,#272,.F.);
#345=ORIENTED_EDGE('',*,*,#244,.F.);
#346=ORIENTED_EDGE('',*,*,#241,.T.);
#347=ORIENTED_EDGE('',*,*,#273,.T.);
#348=ORIENTED_EDGE('',*,*,#274,.F.);
#349=ORIENTED_EDGE('',*,*,#245,.F.);
#350=ORIENTED_EDGE('',*,*,#272,.T.);
#351=ORIENTED_EDGE('',*,*,#275,.T.);
#352=ORIENTED_EDGE('',*,*,#276,.F.);
#353=ORIENTED_EDGE('',*,*,#246,.F.);
#354=ORIENTED_EDGE('',*,*,#274,.T.);
#355=ORIENTED_EDGE('',*,*,#277,.T.);
#356=ORIENTED_EDGE('',*,*,#278,.F.);
#357=ORIENTED_EDGE('',*,*,#247,.F.);
#358=ORIENTED_EDGE('',*,*,#276,.T.);
#359=ORIENTED_EDGE('',*,*,#279,.F.);
#360=ORIENTED_EDGE('',*,*,#280,.F.);
#361=ORIENTED_EDGE('',*,*,#248,.T.);
#362=ORIENTED_EDGE('',*,*,#278,.T.);
#363=ORIENTED_EDGE('',*,*,#281,.T.);
#364=ORIENTED_EDGE('',*,*,#270,.F.);
#365=ORIENTED_EDGE('',*,*,#249,.F.);
#366=ORIENTED_EDGE('',*,*,#280,.T.);
#367=ORIENTED_EDGE('',*,*,#271,.F.);
#368=ORIENTED_EDGE('',*,*,#240,.F.);
#369=ORIENTED_EDGE('',*,*,#269,.T.);
#370=ORIENTED_EDGE('',*,*,#281,.F.);
#371=ORIENTED_EDGE('',*,*,#279,.T.);
#372=ORIENTED_EDGE('',*,*,#277,.F.);
#373=ORIENTED_EDGE('',*,*,#275,.F.);
#374=ORIENTED_EDGE('',*,*,#273,.F.);
#375=ORIENTED_EDGE('',*,*,#282,.T.);
#376=ORIENTED_EDGE('',*,*,#283,.T.);
#377=ORIENTED_EDGE('',*,*,#284,.F.);
#378=ORIENTED_EDGE('',*,*,#285,.F.);
#379=ORIENTED_EDGE('',*,*,#286,.F.);
#380=ORIENTED_EDGE('',*,*,#287,.F.);
#381=ORIENTED_EDGE('',*,*,#288,.F.);
#382=ORIENTED_EDGE('',*,*,#289,.F.);
#383=ORIENTED_EDGE('',*,*,#290,.F.);
#384=ORIENTED_EDGE('',*,*,#291,.F.);
#385=ORIENTED_EDGE('',*,*,#292,.F.);
#386=ORIENTED_EDGE('',*,*,#293,.F.);
#387=ORIENTED_EDGE('',*,*,#294,.F.);
#388=ORIENTED_EDGE('',*,*,#295,.F.);
#389=ORIENTED_EDGE('',*,*,#296,.F.);
#390=ORIENTED_EDGE('',*,*,#297,.F.);
#391=ORIENTED_EDGE('',*,*,#298,.F.);
#392=ORIENTED_EDGE('',*,*,#299,.F.);
#393=ORIENTED_EDGE('',*,*,#267,.T.);
#394=ORIENTED_EDGE('',*,*,#300,.T.);
#395=ORIENTED_EDGE('',*,*,#299,.T.);
#396=ORIENTED_EDGE('',*,*,#298,.T.);
#397=ORIENTED_EDGE('',*,*,#300,.F.);
#398=ORIENTED_EDGE('',*,*,#268,.T.);
#399=ORIENTED_EDGE('',*,*,#265,.T.);
#400=ORIENTED_EDGE('',*,*,#301,.T.);
#401=ORIENTED_EDGE('',*,*,#297,.T.);
#402=ORIENTED_EDGE('',*,*,#296,.T.);
#403=ORIENTED_EDGE('',*,*,#301,.F.);
#404=ORIENTED_EDGE('',*,*,#266,.T.);
#405=ORIENTED_EDGE('',*,*,#257,.T.);
#406=ORIENTED_EDGE('',*,*,#302,.T.);
#407=ORIENTED_EDGE('',*,*,#289,.T.);
#408=ORIENTED_EDGE('',*,*,#288,.T.);
#409=ORIENTED_EDGE('',*,*,#302,.F.);
#410=ORIENTED_EDGE('',*,*,#258,.T.);
#411=ORIENTED_EDGE('',*,*,#259,.T.);
#412=ORIENTED_EDGE('',*,*,#303,.T.);
#413=ORIENTED_EDGE('',*,*,#291,.T.);
#414=ORIENTED_EDGE('',*,*,#290,.T.);
#415=ORIENTED_EDGE('',*,*,#303,.F.);
#416=ORIENTED_EDGE('',*,*,#260,.T.);
#417=ORIENTED_EDGE('',*,*,#261,.T.);
#418=ORIENTED_EDGE('',*,*,#304,.T.);
#419=ORIENTED_EDGE('',*,*,#293,.T.);
#420=ORIENTED_EDGE('',*,*,#292,.T.);
#421=ORIENTED_EDGE('',*,*,#304,.F.);
#422=ORIENTED_EDGE('',*,*,#262,.T.);
#423=ORIENTED_EDGE('',*,*,#263,.T.);
#424=ORIENTED_EDGE('',*,*,#305,.T.);
#425=ORIENTED_EDGE('',*,*,#295,.T.);
#426=ORIENTED_EDGE('',*,*,#294,.T.);
#427=ORIENTED_EDGE('',*,*,#305,.F.);
#428=ORIENTED_EDGE('',*,*,#264,.T.);
#429=ORIENTED_EDGE('',*,*,#255,.T.);
#430=ORIENTED_EDGE('',*,*,#306,.T.);
#431=ORIENTED_EDGE('',*,*,#287,.T.);
#432=ORIENTED_EDGE('',*,*,#286,.T.);
#433=ORIENTED_EDGE('',*,*,#306,.F.);
#434=ORIENTED_EDGE('',*,*,#256,.T.);
#435=ORIENTED_EDGE('',*,*,#253,.T.);
#436=ORIENTED_EDGE('',*,*,#307,.T.);
#437=ORIENTED_EDGE('',*,*,#285,.T.);
#438=ORIENTED_EDGE('',*,*,#284,.T.);
#439=ORIENTED_EDGE('',*,*,#307,.F.);
#440=ORIENTED_EDGE('',*,*,#254,.T.);
#441=ORIENTED_EDGE('',*,*,#251,.T.);
#442=ORIENTED_EDGE('',*,*,#308,.T.);
#443=ORIENTED_EDGE('',*,*,#282,.F.);
#444=ORIENTED_EDGE('',*,*,#283,.F.);
#445=ORIENTED_EDGE('',*,*,#308,.F.);
#446=ORIENTED_EDGE('',*,*,#252,.T.);
#447=CYLINDRICAL_SURFACE('',#513,2.54);
#448=CYLINDRICAL_SURFACE('',#540,2.54);
#449=CYLINDRICAL_SURFACE('',#543,2.54);
#450=CYLINDRICAL_SURFACE('',#546,2.54);
#451=CYLINDRICAL_SURFACE('',#567,3.2639);
#452=CYLINDRICAL_SURFACE('',#568,3.2639);
#453=CYLINDRICAL_SURFACE('',#569,1.6);
#454=CYLINDRICAL_SURFACE('',#570,1.6);
#455=CYLINDRICAL_SURFACE('',#571,1.6);
#456=CYLINDRICAL_SURFACE('',#572,1.6);
#457=CYLINDRICAL_SURFACE('',#573,1.6);
#458=CYLINDRICAL_SURFACE('',#574,1.6);
#459=CYLINDRICAL_SURFACE('',#575,3.5);
#460=STYLED_ITEM('',(#890),#480);
#461=STYLED_ITEM('',(#890),#481);
#462=STYLED_ITEM('',(#890),#482);
#463=STYLED_ITEM('',(#890),#483);
#464=STYLED_ITEM('',(#890),#484);
#465=STYLED_ITEM('',(#890),#485);
#466=STYLED_ITEM('',(#890),#486);
#467=STYLED_ITEM('',(#890),#487);
#468=STYLED_ITEM('',(#890),#488);
#469=STYLED_ITEM('',(#890),#489);
#470=STYLED_ITEM('',(#890),#490);
#471=STYLED_ITEM('',(#890),#491);
#472=STYLED_ITEM('',(#890),#492);
#473=STYLED_ITEM('',(#890),#493);
#474=STYLED_ITEM('',(#890),#494);
#475=STYLED_ITEM('',(#890),#495);
#476=STYLED_ITEM('',(#890),#496);
#477=STYLED_ITEM('',(#890),#497);
#478=STYLED_ITEM('',(#890),#498);
#479=STYLED_ITEM('',(#889),#13);
#480=ADVANCED_FACE('',(#38),#447,.T.);
#481=ADVANCED_FACE('',(#39,#14,#15,#16,#17,#18,#19,#20,#21,#22),#32,.T.);
#482=ADVANCED_FACE('',(#40),#33,.T.);
#483=ADVANCED_FACE('',(#41),#34,.F.);
#484=ADVANCED_FACE('',(#42),#448,.T.);
#485=ADVANCED_FACE('',(#43),#35,.F.);
#486=ADVANCED_FACE('',(#44),#449,.T.);
#487=ADVANCED_FACE('',(#45),#36,.T.);
#488=ADVANCED_FACE('',(#46),#450,.T.);
#489=ADVANCED_FACE('',(#47,#23,#24,#25,#26,#27,#28,#29,#30,#31),#37,.F.);
#490=ADVANCED_FACE('',(#48),#451,.F.);
#491=ADVANCED_FACE('',(#49),#452,.F.);
#492=ADVANCED_FACE('',(#50),#453,.F.);
#493=ADVANCED_FACE('',(#51),#454,.F.);
#494=ADVANCED_FACE('',(#52),#455,.F.);
#495=ADVANCED_FACE('',(#53),#456,.F.);
#496=ADVANCED_FACE('',(#54),#457,.F.);
#497=ADVANCED_FACE('',(#55),#458,.F.);
#498=ADVANCED_FACE('',(#56),#459,.F.);
#499=CLOSED_SHELL('',(#480,#481,#482,#483,#484,#485,#486,#487,#488,#489,
#490,#491,#492,#493,#494,#495,#496,#497,#498));
#500=DERIVED_UNIT_ELEMENT(#502,1.);
#501=DERIVED_UNIT_ELEMENT(#877,3.);
#502=(
MASS_UNIT()
NAMED_UNIT(*)
SI_UNIT(.KILO.,.GRAM.)
);
#503=DERIVED_UNIT((#500,#501));
#504=MEASURE_REPRESENTATION_ITEM('density measure',
POSITIVE_RATIO_MEASURE(1425.),#503);
#505=PROPERTY_DEFINITION_REPRESENTATION(#510,#507);
#506=PROPERTY_DEFINITION_REPRESENTATION(#511,#508);
#507=REPRESENTATION('material name',(#509),#872);
#508=REPRESENTATION('density',(#504),#872);
#509=DESCRIPTIVE_REPRESENTATION_ITEM('Acetal Resin, Black',
'Acetal Resin, Black');
#510=PROPERTY_DEFINITION('material property','material name',#882);
#511=PROPERTY_DEFINITION('material property','density of part',#882);
#512=AXIS2_PLACEMENT_3D('placement',#729,#576,#577);
#513=AXIS2_PLACEMENT_3D('',#730,#578,#579);
#514=AXIS2_PLACEMENT_3D('',#733,#580,#581);
#515=AXIS2_PLACEMENT_3D('',#737,#583,#584);
#516=AXIS2_PLACEMENT_3D('',#739,#586,#587);
#517=AXIS2_PLACEMENT_3D('',#743,#589,#590);
#518=AXIS2_PLACEMENT_3D('',#747,#592,#593);
#519=AXIS2_PLACEMENT_3D('',#751,#595,#596);
#520=AXIS2_PLACEMENT_3D('',#755,#598,#599);
#521=AXIS2_PLACEMENT_3D('',#756,#600,#601);
#522=AXIS2_PLACEMENT_3D('',#759,#602,#603);
#523=AXIS2_PLACEMENT_3D('',#760,#604,#605);
#524=AXIS2_PLACEMENT_3D('',#763,#606,#607);
#525=AXIS2_PLACEMENT_3D('',#764,#608,#609);
#526=AXIS2_PLACEMENT_3D('',#767,#610,#611);
#527=AXIS2_PLACEMENT_3D('',#768,#612,#613);
#528=AXIS2_PLACEMENT_3D('',#771,#614,#615);
#529=AXIS2_PLACEMENT_3D('',#772,#616,#617);
#530=AXIS2_PLACEMENT_3D('',#775,#618,#619);
#531=AXIS2_PLACEMENT_3D('',#776,#620,#621);
#532=AXIS2_PLACEMENT_3D('',#779,#622,#623);
#533=AXIS2_PLACEMENT_3D('',#780,#624,#625);
#534=AXIS2_PLACEMENT_3D('',#783,#626,#627);
#535=AXIS2_PLACEMENT_3D('',#784,#628,#629);
#536=AXIS2_PLACEMENT_3D('',#787,#630,#631);
#537=AXIS2_PLACEMENT_3D('',#788,#632,#633);
#538=AXIS2_PLACEMENT_3D('',#789,#634,#635);
#539=AXIS2_PLACEMENT_3D('',#793,#638,#639);
#540=AXIS2_PLACEMENT_3D('',#797,#642,#643);
#541=AXIS2_PLACEMENT_3D('',#799,#644,#645);
#542=AXIS2_PLACEMENT_3D('',#801,#647,#648);
#543=AXIS2_PLACEMENT_3D('',#805,#651,#652);
#544=AXIS2_PLACEMENT_3D('',#807,#653,#654);
#545=AXIS2_PLACEMENT_3D('',#809,#656,#657);
#546=AXIS2_PLACEMENT_3D('',#813,#660,#661);
#547=AXIS2_PLACEMENT_3D('',#814,#662,#663);
#548=AXIS2_PLACEMENT_3D('',#815,#664,#665);
#549=AXIS2_PLACEMENT_3D('',#818,#666,#667);
#550=AXIS2_PLACEMENT_3D('',#819,#668,#669);
#551=AXIS2_PLACEMENT_3D('',#822,#670,#671);
#552=AXIS2_PLACEMENT_3D('',#823,#672,#673);
#553=AXIS2_PLACEMENT_3D('',#826,#674,#675);
#554=AXIS2_PLACEMENT_3D('',#827,#676,#677);
#555=AXIS2_PLACEMENT_3D('',#830,#678,#679);
#556=AXIS2_PLACEMENT_3D('',#831,#680,#681);
#557=AXIS2_PLACEMENT_3D('',#834,#682,#683);
#558=AXIS2_PLACEMENT_3D('',#835,#684,#685);
#559=AXIS2_PLACEMENT_3D('',#838,#686,#687);
#560=AXIS2_PLACEMENT_3D('',#839,#688,#689);
#561=AXIS2_PLACEMENT_3D('',#842,#690,#691);
#562=AXIS2_PLACEMENT_3D('',#843,#692,#693);
#563=AXIS2_PLACEMENT_3D('',#846,#694,#695);
#564=AXIS2_PLACEMENT_3D('',#847,#696,#697);
#565=AXIS2_PLACEMENT_3D('',#850,#698,#699);
#566=AXIS2_PLACEMENT_3D('',#851,#700,#701);
#567=AXIS2_PLACEMENT_3D('',#852,#702,#703);
#568=AXIS2_PLACEMENT_3D('',#854,#705,#706);
#569=AXIS2_PLACEMENT_3D('',#856,#708,#709);
#570=AXIS2_PLACEMENT_3D('',#858,#711,#712);
#571=AXIS2_PLACEMENT_3D('',#860,#714,#715);
#572=AXIS2_PLACEMENT_3D('',#862,#717,#718);
#573=AXIS2_PLACEMENT_3D('',#864,#720,#721);
#574=AXIS2_PLACEMENT_3D('',#866,#723,#724);
#575=AXIS2_PLACEMENT_3D('',#868,#726,#727);
#576=DIRECTION('axis',(0.,0.,1.));
#577=DIRECTION('refdir',(1.,0.,0.));
#578=DIRECTION('center_axis',(0.,-1.,0.));
#579=DIRECTION('ref_axis',(0.,0.,1.));
#580=DIRECTION('center_axis',(0.,-1.,0.));
#581=DIRECTION('ref_axis',(0.,0.,-1.));
#582=DIRECTION('',(0.,1.,0.));
#583=DIRECTION('center_axis',(0.,-1.,0.));
#584=DIRECTION('ref_axis',(0.,0.,-1.));
#585=DIRECTION('',(0.,1.,0.));
#586=DIRECTION('center_axis',(0.,-1.,0.));
#587=DIRECTION('ref_axis',(1.,0.,0.));
#588=DIRECTION('',(5.93879998622666E-17,0.,1.));
#589=DIRECTION('center_axis',(0.,-1.,0.));
#590=DIRECTION('ref_axis',(0.,0.,-1.));
#591=DIRECTION('',(-1.,0.,0.));
#592=DIRECTION('center_axis',(0.,-1.,0.));
#593=DIRECTION('ref_axis',(0.,0.,-1.));
#594=DIRECTION('',(5.93879998622666E-17,0.,1.));
#595=DIRECTION('center_axis',(0.,-1.,0.));
#596=DIRECTION('ref_axis',(0.,0.,-1.));
#597=DIRECTION('',(-1.,0.,0.));
#598=DIRECTION('center_axis',(0.,-1.,0.));
#599=DIRECTION('ref_axis',(0.,0.,-1.));
#600=DIRECTION('center_axis',(0.,-1.,0.));
#601=DIRECTION('ref_axis',(0.,0.,-1.));
#602=DIRECTION('center_axis',(0.,-1.,0.));
#603=DIRECTION('ref_axis',(0.,0.,-1.));
#604=DIRECTION('center_axis',(0.,-1.,0.));
#605=DIRECTION('ref_axis',(0.,0.,-1.));
#606=DIRECTION('center_axis',(0.,-1.,0.));
#607=DIRECTION('ref_axis',(0.,0.,-1.));
#608=DIRECTION('center_axis',(0.,-1.,0.));
#609=DIRECTION('ref_axis',(0.,0.,-1.));
#610=DIRECTION('center_axis',(0.,-1.,0.));
#611=DIRECTION('ref_axis',(0.,0.,-1.));
#612=DIRECTION('center_axis',(0.,-1.,0.));
#613=DIRECTION('ref_axis',(0.,0.,-1.));
#614=DIRECTION('center_axis',(0.,-1.,0.));
#615=DIRECTION('ref_axis',(0.,0.,-1.));
#616=DIRECTION('center_axis',(0.,-1.,0.));
#617=DIRECTION('ref_axis',(0.,0.,-1.));
#618=DIRECTION('center_axis',(0.,-1.,0.));
#619=DIRECTION('ref_axis',(0.,0.,-1.));
#620=DIRECTION('center_axis',(0.,-1.,0.));
#621=DIRECTION('ref_axis',(0.,0.,-1.));
#622=DIRECTION('center_axis',(0.,-1.,0.));
#623=DIRECTION('ref_axis',(0.,0.,-1.));
#624=DIRECTION('center_axis',(0.,-1.,0.));
#625=DIRECTION('ref_axis',(0.,0.,-1.));
#626=DIRECTION('center_axis',(0.,-1.,0.));
#627=DIRECTION('ref_axis',(0.,0.,-1.));
#628=DIRECTION('center_axis',(0.,-1.,0.));
#629=DIRECTION('ref_axis',(0.,0.,-1.));
#630=DIRECTION('center_axis',(0.,-1.,0.));
#631=DIRECTION('ref_axis',(0.,0.,-1.));
#632=DIRECTION('center_axis',(0.,-1.,0.));
#633=DIRECTION('ref_axis',(0.,0.,-1.));
#634=DIRECTION('center_axis',(0.,0.,-1.));
#635=DIRECTION('ref_axis',(-1.,0.,0.));
#636=DIRECTION('',(-1.,0.,0.));
#637=DIRECTION('',(0.,1.,0.));
#638=DIRECTION('center_axis',(-1.,0.,5.93879998622666E-17));
#639=DIRECTION('ref_axis',(5.93879998622666E-17,0.,1.));
#640=DIRECTION('',(5.93879998622666E-17,0.,1.));
#641=DIRECTION('',(0.,1.,0.));
#642=DIRECTION('center_axis',(0.,-1.,0.));
#643=DIRECTION('ref_axis',(0.,0.,1.));
#644=DIRECTION('center_axis',(0.,-1.,0.));
#645=DIRECTION('ref_axis',(0.,0.,-1.));
#646=DIRECTION('',(0.,1.,0.));
#647=DIRECTION('center_axis',(0.,0.,-1.));
#648=DIRECTION('ref_axis',(-1.,0.,0.));
#649=DIRECTION('',(-1.,0.,0.));
#650=DIRECTION('',(0.,1.,0.));
#651=DIRECTION('center_axis',(0.,-1.,0.));
#652=DIRECTION('ref_axis',(0.,0.,1.));
#653=DIRECTION('center_axis',(0.,-1.,0.));
#654=DIRECTION('ref_axis',(0.,0.,-1.));
#655=DIRECTION('',(0.,1.,0.));
#656=DIRECTION('center_axis',(-1.,0.,5.93879998622666E-17));
#657=DIRECTION('ref_axis',(5.93879998622666E-17,0.,1.));
#658=DIRECTION('',(5.93879998622666E-17,0.,1.));
#659=DIRECTION('',(0.,1.,0.));
#660=DIRECTION('center_axis',(0.,-1.,0.));
#661=DIRECTION('ref_axis',(0.,0.,1.));
#662=DIRECTION('center_axis',(0.,-1.,0.));
#663=DIRECTION('ref_axis',(0.,0.,-1.));
#664=DIRECTION('center_axis',(0.,-1.,0.));
#665=DIRECTION('ref_axis',(1.,0.,0.));
#666=DIRECTION('center_axis',(0.,-1.,0.));
#667=DIRECTION('ref_axis',(0.,0.,-1.));
#668=DIRECTION('center_axis',(0.,-1.,0.));
#669=DIRECTION('ref_axis',(0.,0.,-1.));
#670=DIRECTION('center_axis',(0.,-1.,0.));
#671=DIRECTION('ref_axis',(0.,0.,-1.));
#672=DIRECTION('center_axis',(0.,-1.,0.));
#673=DIRECTION('ref_axis',(0.,0.,-1.));
#674=DIRECTION('center_axis',(0.,-1.,0.));
#675=DIRECTION('ref_axis',(0.,0.,-1.));
#676=DIRECTION('center_axis',(0.,-1.,0.));
#677=DIRECTION('ref_axis',(0.,0.,-1.));
#678=DIRECTION('center_axis',(0.,-1.,0.));
#679=DIRECTION('ref_axis',(0.,0.,-1.));
#680=DIRECTION('center_axis',(0.,-1.,0.));
#681=DIRECTION('ref_axis',(0.,0.,-1.));
#682=DIRECTION('center_axis',(0.,-1.,0.));
#683=DIRECTION('ref_axis',(0.,0.,-1.));
#684=DIRECTION('center_axis',(0.,-1.,0.));
#685=DIRECTION('ref_axis',(0.,0.,-1.));
#686=DIRECTION('center_axis',(0.,-1.,0.));
#687=DIRECTION('ref_axis',(0.,0.,-1.));
#688=DIRECTION('center_axis',(0.,-1.,0.));
#689=DIRECTION('ref_axis',(0.,0.,-1.));
#690=DIRECTION('center_axis',(0.,-1.,0.));
#691=DIRECTION('ref_axis',(0.,0.,-1.));
#692=DIRECTION('center_axis',(0.,-1.,0.));
#693=DIRECTION('ref_axis',(0.,0.,-1.));
#694=DIRECTION('center_axis',(0.,-1.,0.));
#695=DIRECTION('ref_axis',(0.,0.,-1.));
#696=DIRECTION('center_axis',(0.,-1.,0.));
#697=DIRECTION('ref_axis',(0.,0.,-1.));
#698=DIRECTION('center_axis',(0.,-1.,0.));
#699=DIRECTION('ref_axis',(0.,0.,-1.));
#700=DIRECTION('center_axis',(0.,-1.,0.));
#701=DIRECTION('ref_axis',(0.,0.,-1.));
#702=DIRECTION('center_axis',(0.,1.,0.));
#703=DIRECTION('ref_axis',(0.,0.,-1.));
#704=DIRECTION('',(0.,1.,0.));
#705=DIRECTION('center_axis',(0.,1.,0.));
#706=DIRECTION('ref_axis',(0.,0.,-1.));
#707=DIRECTION('',(0.,1.,0.));
#708=DIRECTION('center_axis',(0.,1.,0.));
#709=DIRECTION('ref_axis',(0.,0.,-1.));
#710=DIRECTION('',(0.,1.,0.));
#711=DIRECTION('center_axis',(0.,1.,0.));
#712=DIRECTION('ref_axis',(0.,0.,-1.));
#713=DIRECTION('',(0.,1.,0.));
#714=DIRECTION('center_axis',(0.,1.,0.));
#715=DIRECTION('ref_axis',(0.,0.,-1.));
#716=DIRECTION('',(0.,1.,0.));
#717=DIRECTION('center_axis',(0.,1.,0.));
#718=DIRECTION('ref_axis',(0.,0.,-1.));
#719=DIRECTION('',(0.,1.,0.));
#720=DIRECTION('center_axis',(0.,1.,0.));
#721=DIRECTION('ref_axis',(0.,0.,-1.));
#722=DIRECTION('',(0.,1.,0.));
#723=DIRECTION('center_axis',(0.,1.,0.));
#724=DIRECTION('ref_axis',(0.,0.,-1.));
#725=DIRECTION('',(0.,1.,0.));
#726=DIRECTION('center_axis',(0.,1.,0.));
#727=DIRECTION('ref_axis',(0.,0.,-1.));
#728=DIRECTION('',(0.,1.,0.));
#729=CARTESIAN_POINT('',(0.,0.,0.));
#730=CARTESIAN_POINT('Origin',(22.86,-3.175,-29.21));
#731=CARTESIAN_POINT('',(22.86,0.,-31.75));
#732=CARTESIAN_POINT('',(25.4,0.,-29.21));
#733=CARTESIAN_POINT('Origin',(22.86,0.,-29.21));
#734=CARTESIAN_POINT('',(25.4,-3.175,-29.21));
#735=CARTESIAN_POINT('',(25.4,-3.175,-29.21));
#736=CARTESIAN_POINT('',(22.86,-3.175,-31.75));
#737=CARTESIAN_POINT('Origin',(22.86,-3.175,-29.21));
#738=CARTESIAN_POINT('',(22.86,-3.175,-31.75));
#739=CARTESIAN_POINT('Origin',(0.,-3.175,0.));
#740=CARTESIAN_POINT('',(25.4,-3.175,29.21));
#741=CARTESIAN_POINT('',(25.4,-3.175,6.93889390390723E-15));
#742=CARTESIAN_POINT('',(22.86,-3.175,31.75));
#743=CARTESIAN_POINT('Origin',(22.86,-3.175,29.21));
#744=CARTESIAN_POINT('',(-22.86,-3.175,31.75));
#745=CARTESIAN_POINT('',(3.46944695195361E-15,-3.175,31.75));
#746=CARTESIAN_POINT('',(-25.4,-3.175,29.21));
#747=CARTESIAN_POINT('Origin',(-22.86,-3.175,29.21));
#748=CARTESIAN_POINT('',(-25.4,-3.175,-29.21));
#749=CARTESIAN_POINT('',(-25.4,-3.175,-6.93889390390723E-15));
#750=CARTESIAN_POINT('',(-22.86,-3.175,-31.75));
#751=CARTESIAN_POINT('Origin',(-22.86,-3.175,-29.21));
#752=CARTESIAN_POINT('',(0.,-3.175,-31.75));
#753=CARTESIAN_POINT('',(0.,-3.175,-17.47));
#754=CARTESIAN_POINT('',(4.28626379701574E-16,-3.175,-10.47));
#755=CARTESIAN_POINT('Origin',(0.,-3.175,-13.97));
#756=CARTESIAN_POINT('Origin',(0.,-3.175,-13.97));
#757=CARTESIAN_POINT('',(-1.7347234759768E-15,-3.175,-7.57));
#758=CARTESIAN_POINT('',(-1.53877998811322E-15,-3.17500000000001,-4.37));
#759=CARTESIAN_POINT('Origin',(-1.7347234759768E-15,-3.175,-5.97));
#760=CARTESIAN_POINT('Origin',(-1.7347234759768E-15,-3.175,-5.97));
#761=CARTESIAN_POINT('',(6.92820323027551,-3.175,-11.57));
#762=CARTESIAN_POINT('',(6.92820323027551,-3.17500000000001,-8.37));
#763=CARTESIAN_POINT('Origin',(6.92820323027551,-3.175,-9.97));
#764=CARTESIAN_POINT('Origin',(6.92820323027551,-3.175,-9.97));
#765=CARTESIAN_POINT('',(6.92820323027552,-3.175,-19.57));
#766=CARTESIAN_POINT('',(6.92820323027552,-3.17500000000001,-16.37));
#767=CARTESIAN_POINT('Origin',(6.92820323027552,-3.175,-17.97));
#768=CARTESIAN_POINT('Origin',(6.92820323027552,-3.175,-17.97));
#769=CARTESIAN_POINT('',(2.16840434497101E-15,-3.175,-23.57));
#770=CARTESIAN_POINT('',(2.36434783283459E-15,-3.17500000000001,-20.37));
#771=CARTESIAN_POINT('Origin',(2.16840434497101E-15,-3.175,-21.97));
#772=CARTESIAN_POINT('Origin',(2.16840434497101E-15,-3.175,-21.97));
#773=CARTESIAN_POINT('',(-6.92820323027551,-3.175,-19.57));
#774=CARTESIAN_POINT('',(-6.92820323027551,-3.17500000000001,-16.37));
#775=CARTESIAN_POINT('Origin',(-6.92820323027551,-3.175,-17.97));
#776=CARTESIAN_POINT('Origin',(-6.92820323027551,-3.175,-17.97));
#777=CARTESIAN_POINT('',(-6.92820323027551,-3.175,-11.57));
#778=CARTESIAN_POINT('',(-6.92820323027551,-3.17500000000001,-8.37));
#779=CARTESIAN_POINT('Origin',(-6.92820323027551,-3.175,-9.97));
#780=CARTESIAN_POINT('Origin',(-6.92820323027551,-3.175,-9.97));
#781=CARTESIAN_POINT('',(-12.7,-3.175,15.7861));
#782=CARTESIAN_POINT('',(-12.7,-3.175,22.3139));
#783=CARTESIAN_POINT('Origin',(-12.7,-3.175,19.05));
#784=CARTESIAN_POINT('Origin',(-12.7,-3.175,19.05));
#785=CARTESIAN_POINT('',(12.7,-3.175,15.7861));
#786=CARTESIAN_POINT('',(12.7,-3.175,22.3139));
#787=CARTESIAN_POINT('Origin',(12.7,-3.175,19.05));
#788=CARTESIAN_POINT('Origin',(12.7,-3.175,19.05));
#789=CARTESIAN_POINT('Origin',(0.,-3.175,-31.75));
#790=CARTESIAN_POINT('',(-22.86,0.,-31.75));
#791=CARTESIAN_POINT('',(0.,0.,-31.75));
#792=CARTESIAN_POINT('',(-22.86,-3.175,-31.75));
#793=CARTESIAN_POINT('Origin',(25.4,-3.175,6.93889390390723E-15));
#794=CARTESIAN_POINT('',(25.4,0.,29.21));
#795=CARTESIAN_POINT('',(25.4,0.,6.93889390390723E-15));
#796=CARTESIAN_POINT('',(25.4,-3.175,29.21));
#797=CARTESIAN_POINT('Origin',(22.86,-3.175,29.21));
#798=CARTESIAN_POINT('',(22.86,0.,31.75));
#799=CARTESIAN_POINT('Origin',(22.86,0.,29.21));
#800=CARTESIAN_POINT('',(22.86,-3.175,31.75));
#801=CARTESIAN_POINT('Origin',(3.46944695195361E-15,-3.175,31.75));
#802=CARTESIAN_POINT('',(-22.86,0.,31.75));
#803=CARTESIAN_POINT('',(3.46944695195361E-15,0.,31.75));
#804=CARTESIAN_POINT('',(-22.86,-3.175,31.75));
#805=CARTESIAN_POINT('Origin',(-22.86,-3.175,29.21));
#806=CARTESIAN_POINT('',(-25.4,0.,29.21));
#807=CARTESIAN_POINT('Origin',(-22.86,0.,29.21));
#808=CARTESIAN_POINT('',(-25.4,-3.175,29.21));
#809=CARTESIAN_POINT('Origin',(-25.4,-3.175,-6.93889390390723E-15));
#810=CARTESIAN_POINT('',(-25.4,0.,-29.21));
#811=CARTESIAN_POINT('',(-25.4,0.,-6.93889390390723E-15));
#812=CARTESIAN_POINT('',(-25.4,-3.175,-29.21));
#813=CARTESIAN_POINT('Origin',(-22.86,-3.175,-29.21));
#814=CARTESIAN_POINT('Origin',(-22.86,0.,-29.21));
#815=CARTESIAN_POINT('Origin',(0.,0.,0.));
#816=CARTESIAN_POINT('',(0.,0.,-17.47));
#817=CARTESIAN_POINT('',(4.28626379701574E-16,8.88178419700125E-15,-10.47));
#818=CARTESIAN_POINT('Origin',(0.,0.,-13.97));
#819=CARTESIAN_POINT('Origin',(0.,0.,-13.97));
#820=CARTESIAN_POINT('',(-1.7347234759768E-15,0.,-7.57));
#821=CARTESIAN_POINT('',(-1.53877998811322E-15,0.,-4.37));
#822=CARTESIAN_POINT('Origin',(-1.7347234759768E-15,0.,-5.97));
#823=CARTESIAN_POINT('Origin',(-1.7347234759768E-15,0.,-5.97));
#824=CARTESIAN_POINT('',(6.92820323027551,0.,-11.57));
#825=CARTESIAN_POINT('',(6.92820323027551,0.,-8.37));
#826=CARTESIAN_POINT('Origin',(6.92820323027551,0.,-9.97));
#827=CARTESIAN_POINT('Origin',(6.92820323027551,0.,-9.97));
#828=CARTESIAN_POINT('',(6.92820323027552,0.,-19.57));
#829=CARTESIAN_POINT('',(6.92820323027552,0.,-16.37));
#830=CARTESIAN_POINT('Origin',(6.92820323027552,0.,-17.97));
#831=CARTESIAN_POINT('Origin',(6.92820323027552,0.,-17.97));
#832=CARTESIAN_POINT('',(2.16840434497101E-15,0.,-23.57));
#833=CARTESIAN_POINT('',(2.36434783283459E-15,0.,-20.37));
#834=CARTESIAN_POINT('Origin',(2.16840434497101E-15,0.,-21.97));
#835=CARTESIAN_POINT('Origin',(2.16840434497101E-15,0.,-21.97));
#836=CARTESIAN_POINT('',(-6.92820323027551,0.,-19.57));
#837=CARTESIAN_POINT('',(-6.92820323027551,0.,-16.37));
#838=CARTESIAN_POINT('Origin',(-6.92820323027551,0.,-17.97));
#839=CARTESIAN_POINT('Origin',(-6.92820323027551,0.,-17.97));
#840=CARTESIAN_POINT('',(-6.92820323027551,0.,-11.57));
#841=CARTESIAN_POINT('',(-6.92820323027551,0.,-8.37));
#842=CARTESIAN_POINT('Origin',(-6.92820323027551,0.,-9.97));
#843=CARTESIAN_POINT('Origin',(-6.92820323027551,0.,-9.97));
#844=CARTESIAN_POINT('',(-12.7,0.,15.7861));
#845=CARTESIAN_POINT('',(-12.7,0.,22.3139));
#846=CARTESIAN_POINT('Origin',(-12.7,0.,19.05));
#847=CARTESIAN_POINT('Origin',(-12.7,0.,19.05));
#848=CARTESIAN_POINT('',(12.7,0.,15.7861));
#849=CARTESIAN_POINT('',(12.7,0.,22.3139));
#850=CARTESIAN_POINT('Origin',(12.7,0.,19.05));
#851=CARTESIAN_POINT('Origin',(12.7,0.,19.05));
#852=CARTESIAN_POINT('Origin',(12.7,79.1872101613715,19.05));
#853=CARTESIAN_POINT('',(12.7,79.1872101613715,22.3139));
#854=CARTESIAN_POINT('Origin',(-12.7,79.1872101613715,19.05));
#855=CARTESIAN_POINT('',(-12.7,79.1872101613715,22.3139));
#856=CARTESIAN_POINT('Origin',(6.92820323027552,78.6873241693716,-17.97));
#857=CARTESIAN_POINT('',(6.92820323027552,78.6873241693716,-16.37));
#858=CARTESIAN_POINT('Origin',(2.16840434497101E-15,78.6873241693716,-21.97));
#859=CARTESIAN_POINT('',(2.36434783283459E-15,78.6873241693716,-20.37));
#860=CARTESIAN_POINT('Origin',(-6.92820323027551,78.6873241693716,-17.97));
#861=CARTESIAN_POINT('',(-6.92820323027551,78.6873241693716,-16.37));
#862=CARTESIAN_POINT('Origin',(-6.92820323027551,78.6873241693716,-9.97));
#863=CARTESIAN_POINT('',(-6.92820323027551,78.6873241693716,-8.37));
#864=CARTESIAN_POINT('Origin',(6.92820323027551,78.6873241693716,-9.97));
#865=CARTESIAN_POINT('',(6.92820323027551,78.6873241693716,-8.37));
#866=CARTESIAN_POINT('Origin',(-1.7347234759768E-15,78.6873241693716,-5.97));
#867=CARTESIAN_POINT('',(-1.53877998811322E-15,78.6873241693716,-4.37));
#868=CARTESIAN_POINT('Origin',(0.,78.2166356741495,-13.97));
#869=CARTESIAN_POINT('',(4.28626379701574E-16,78.2166356741495,-10.47));
#870=UNCERTAINTY_MEASURE_WITH_UNIT(LENGTH_MEASURE(0.01),#876,
'DISTANCE_ACCURACY_VALUE',
'Maximum model space distance between geometric entities at asserted c
onnectivities');
#871=UNCERTAINTY_MEASURE_WITH_UNIT(LENGTH_MEASURE(0.01),#876,
'DISTANCE_ACCURACY_VALUE',
'Maximum model space distance between geometric entities at asserted c
onnectivities');
#872=(
GEOMETRIC_REPRESENTATION_CONTEXT(3)
GLOBAL_UNCERTAINTY_ASSIGNED_CONTEXT((#870))
GLOBAL_UNIT_ASSIGNED_CONTEXT((#876,#875,#874))
REPRESENTATION_CONTEXT('','3D')
);
#873=(
GEOMETRIC_REPRESENTATION_CONTEXT(3)
GLOBAL_UNCERTAINTY_ASSIGNED_CONTEXT((#871))
GLOBAL_UNIT_ASSIGNED_CONTEXT((#876,#875,#874))
REPRESENTATION_CONTEXT('','3D')
);
#874=(
NAMED_UNIT(*)
SI_UNIT($,.STERADIAN.)
SOLID_ANGLE_UNIT()
);
#875=(
NAMED_UNIT(*)
PLANE_ANGLE_UNIT()
SI_UNIT($,.RADIAN.)
);
#876=(
LENGTH_UNIT()
NAMED_UNIT(*)
SI_UNIT(.MILLI.,.METRE.)
);
#877=(
LENGTH_UNIT()
NAMED_UNIT(*)
SI_UNIT($,.METRE.)
);
#878=SHAPE_DEFINITION_REPRESENTATION(#879,#880);
#879=PRODUCT_DEFINITION_SHAPE('',$,#882);
#880=SHAPE_REPRESENTATION('',(#512),#872);
#881=PRODUCT_DEFINITION_CONTEXT('part definition',#886,'design');
#882=PRODUCT_DEFINITION('SB0003','SB0003 v2',#883,#881);
#883=PRODUCT_DEFINITION_FORMATION('',$,#888);
#884=PRODUCT_RELATED_PRODUCT_CATEGORY('SB0003 v2','SB0003 v2',(#888));
#885=APPLICATION_PROTOCOL_DEFINITION('international standard',
'automotive_design',2009,#886);
#886=APPLICATION_CONTEXT(
'Core Data for Automotive Mechanical Design Process');
#887=PRODUCT_CONTEXT('part definition',#886,'mechanical');
#888=PRODUCT('SB0003','SB0003 v2',$,(#887));
#889=PRESENTATION_STYLE_ASSIGNMENT((#891));
#890=PRESENTATION_STYLE_ASSIGNMENT((#892));
#891=SURFACE_STYLE_USAGE(.BOTH.,#893);
#892=SURFACE_STYLE_USAGE(.BOTH.,#894);
#893=SURFACE_SIDE_STYLE('',(#895));
#894=SURFACE_SIDE_STYLE('',(#896));
#895=SURFACE_STYLE_FILL_AREA(#897);
#896=SURFACE_STYLE_FILL_AREA(#898);
#897=FILL_AREA_STYLE('Plastic - Glossy (Black)',(#899));
#898=FILL_AREA_STYLE('Opaque(157,207,237)',(#900));
#899=FILL_AREA_STYLE_COLOUR('Plastic - Glossy (Black)',#901);
#900=FILL_AREA_STYLE_COLOUR('Opaque(157,207,237)',#902);
#901=COLOUR_RGB('Plastic - Glossy (Black)',0.0980392156862745,0.0980392156862745,
0.0980392156862745);
#902=COLOUR_RGB('Opaque(157,207,237)',0.615686274509804,0.811764705882353,
0.929411764705882);
ENDSEC;
END-ISO-10303-21;
